…
ggplot_add.data_unnestvar <- function(object, plot, object_name) {

  
  new_data <- tidyr::unnest(plot$data, cols = "data")
    
  plot$data <- new_data
  
  plot

}

diamonds |>
  tidyr::nest(.by = cut) |>
  tidyr::unnest(cols = data)
#> # A tibble: 53,940 × 10
#>    cut   carat color clarity depth table price     x     y     z
#>    <ord> <dbl> <ord> <ord>   <dbl> <dbl> <int> <dbl> <dbl> <dbl>
#>  1 Ideal  0.23 E     SI2      61.5    55   326  3.95  3.98  2.43
#>  2 Ideal  0.23 J     VS1      62.8    56   340  3.93  3.9   2.46
#>  3 Ideal  0.31 J     SI2      62.2    54   344  4.35  4.37  2.71
#>  4 Ideal  0.3  I     SI2      62      54   348  4.31  4.34  2.68
#>  5 Ideal  0.33 I     SI2      61.8    55   403  4.49  4.51  2.78
#>  6 Ideal  0.33 I     SI2      61.2    56   403  4.49  4.5   2.75
#>  7 Ideal  0.33 J     SI1      61.1    56   403  4.49  4.55  2.76
#>  8 Ideal  0.23 G     VS1      61.9    54   404  3.93  3.95  2.44
#>  9 Ideal  0.32 I     SI1      60.9    55   404  4.45  4.48  2.72
#> 10 Ideal  0.3  I     SI2      61      59   405  4.3   4.33  2.63
#> # ℹ 53,930 more rows
…
``` r

last_plot_data()
#> # A tibble: 53,940 × 10
#>    cut   carat color clarity depth table price     x     y     z
#>    <ord> <dbl> <ord> <ord>   <dbl> <dbl> <int> <dbl> <dbl> <dbl>
#>  1 Ideal  0.23 E     SI2      61.5    55   326  3.95  3.98  2.43
#>  2 Ideal  0.23 J     VS1      62.8    56   340  3.93  3.9   2.46
#>  3 Ideal  0.31 J     SI2      62.2    54   344  4.35  4.37  2.71
#>  4 Ideal  0.3  I     SI2      62      54   348  4.31  4.34  2.68
#>  5 Ideal  0.33 I     SI2      61.8    55   403  4.49  4.51  2.78
#>  6 Ideal  0.33 I     SI2      61.2    56   403  4.49  4.5   2.75
#>  7 Ideal  0.33 J     SI1      61.1    56   403  4.49  4.55  2.76
#>  8 Ideal  0.23 G     VS1      61.9    54   404  3.93  3.95  2.44
#>  9 Ideal  0.32 I     SI1      60.9    55   404  4.45  4.48  2.72
#> 10 Ideal  0.3  I     SI2      61      59   405  4.3   4.33  2.63
#> # ℹ 53,930 more rows
```
…
